<?xml version="1.0" encoding="UTF-8" standalone="no"?>
<!-- Created with Inkscape (http://www.inkscape.org/) -->

<svg
   xmlns:dc="http://purl.org/dc/elements/1.1/"
   xmlns:cc="http://creativecommons.org/ns#"
   xmlns:rdf="http://www.w3.org/1999/02/22-rdf-syntax-ns#"
   xmlns:svg="http://www.w3.org/2000/svg"
   xmlns="http://www.w3.org/2000/svg"
   xmlns:sodipodi="http://sodipodi.sourceforge.net/DTD/sodipodi-0.dtd"
   xmlns:inkscape="http://www.inkscape.org/namespaces/inkscape"
   id="svg2"
   version="1.1"
   inkscape:version="0.48.5 r10040"
   width="282.31463"
   height="45.49145"
   xml:space="preserve"
   sodipodi:docname="ovacopi logo.pdf"><metadata
     id="metadata8"><rdf:RDF><cc:Work
         rdf:about=""><dc:format>image/svg+xml</dc:format><dc:type
           rdf:resource="http://purl.org/dc/dcmitype/StillImage" /><dc:title></dc:title></cc:Work></rdf:RDF></metadata><defs
     id="defs6"><clipPath
       clipPathUnits="userSpaceOnUse"
       id="clipPath18"><path
         d="m 0,0.4266853 225,0 0,35.5733097 -225,0 0,-35.5733097 z"
         id="path20" /></clipPath></defs><sodipodi:namedview
     pagecolor="#ffffff"
     bordercolor="#666666"
     borderopacity="1"
     objecttolerance="10"
     gridtolerance="10"
     guidetolerance="10"
     inkscape:pageopacity="0"
     inkscape:pageshadow="2"
     inkscape:window-width="640"
     inkscape:window-height="480"
     id="namedview4"
     showgrid="false"
     inkscape:zoom="1.6329299"
     inkscape:cx="141.15732"
     inkscape:cy="22.745726"
     inkscape:window-x="64"
     inkscape:window-y="48"
     inkscape:window-maximized="0"
     inkscape:current-layer="g10" /><g
     id="g10"
     inkscape:groupmode="layer"
     inkscape:label="ovacopi logo"
     transform="matrix(1.25,0,0,-1.25,0,45.49145)"><g
       id="g12" /><g
       id="g14"><g
         id="g16"
         clip-path="url(#clipPath18)"><path
           d="m 96.47485,30.65504 c 1.23818,-2.70212 1.75444,-6.06706 1.75444,-12.08224 0,-5.45506 -0.46485,-9.176821 -1.44383,-11.825997 -1.4449,-4.028824 -5.0534,-6.1687059 -10.36601,-6.1687059 -5.31153,0 -8.76687,2.1398819 -10.26211,6.2703529 -0.92863,2.599412 -1.39242,6.42282 -1.39242,11.67353 0,6.066 0.56661,9.68612 2.01044,12.38718 1.70196,3.36494 4.95058,4.99658 9.79833,4.99658 4.90024,0 8.20027,-1.78411 9.90116,-5.2507 z M 81.88125,18.62363 c 0,-10.298121 0.98004,-13.204592 4.58962,-13.204592 3.55816,0 4.64103,2.854589 4.64103,12.440122 0,10.55223 -0.92756,13.20353 -4.58962,13.20353 -3.60957,0 -4.64103,-2.70212 -4.64103,-12.43906"
           style="fill:#231f20;fill-opacity:1;fill-rule:nonzero;stroke:none"
           id="path22" /><path
           d="m 106.511,35.24292 3.7648,-18.14929 c 0.7209,-4.94471 0.9801,-7.08459 1.1857,-10.55118 l 0.2068,0 c 0.1542,3.109765 0.3609,5.30153 1.1342,10.44953 l 3.766,18.25094 7.2716,0 -7.9935,-34.003058 -8.8194,0 -7.94318,34.003058 7.42698,0"
           style="fill:#231f20;fill-opacity:1;fill-rule:nonzero;stroke:none"
           id="path24" /><path
           d="m 139.4031,35.24292 8.8172,-34.003058 -7.322,0 -1.703,7.238117 -8.7144,0 -1.8059,-7.238117 -7.2202,0 9.0775,34.003058 8.8708,0 z m -4.6946,-4.99553 c -0.0514,-0.86612 -0.1543,-1.47812 -0.4638,-3.16165 -0.2067,-1.12023 -0.4124,-2.08905 -0.4638,-2.54858 -0.1028,-0.56012 -0.257,-1.17212 -0.257,-1.22295 l -2.1658,-9.38011 6.8582,0 -2.064,9.17576 c -0.0514,0.20435 -0.1028,0.71365 -0.2571,1.37753 0,0.30494 -0.2067,1.17212 -0.4637,2.49777 -0.2571,1.52894 -0.361,2.24258 -0.4649,3.26223 l -0.2581,0"
           style="fill:#231f20;fill-opacity:1;fill-rule:nonzero;stroke:none"
           id="path26" /><path
           d="m 170.168,12.75986 c 0,-2.7 -0.6684,-5.249645 -1.9066,-7.442469 -1.8047,-3.263294 -4.3336,-4.6387057 -8.3555,-4.6387057 -7.5287,0 -10.9326,5.3534117 -10.9326,17.3329447 0,5.65941 0.7208,9.738 2.2171,12.64341 1.702,3.31306 4.8478,5.148 8.8708,5.148 6.0859,0 9.5916,-3.72071 9.7972,-10.45059 l -3.0419,0 c -0.0492,1.73329 -0.4637,3.36494 -1.1867,4.84306 -1.1332,2.04035 -2.9916,3.10976 -5.62,3.10976 -5.4669,0 -7.8908,-4.68953 -7.8908,-15.34447 0,-10.246232 2.4239,-14.78435 7.8383,-14.78435 4.3315,0 6.9107,3.518471 7.1688,9.58341 l 3.0419,0"
           style="fill:#231f20;fill-opacity:1;fill-rule:nonzero;stroke:none"
           id="path28" /><path
           d="m 195.4939,18.62363 c 0,-12.337415 -3.5057,-17.9449447 -11.2422,-17.9449447 -7.4269,0 -10.8812,5.6583527 -10.8812,17.7924747 0,11.67458 3.6621,17.33188 11.1405,17.33188 7.4772,0 10.9829,-5.50483 10.9829,-17.17941 z m -18.9765,-0.15247 c 0,-10.654945 2.3714,-15.29471 7.7343,-15.29471 5.6222,0 8.0975,4.588941 8.0975,15.09035 0,10.50247 -2.3735,15.03847 -7.8918,15.03847 -5.5183,0 -7.94,-4.536 -7.94,-14.83411"
           style="fill:#231f20;fill-opacity:1;fill-rule:nonzero;stroke:none"
           id="path30" /><path
           d="m 208.438,35.24292 c 2.9916,0 4.8478,-0.40659 6.3955,-1.37647 2.4753,-1.58082 3.8666,-4.48518 3.8666,-8.20694 0,-3.97694 -1.7019,-7.08671 -4.6935,-8.61671 -1.598,-0.76341 -3.1447,-1.01964 -6.6525,-1.01964 l -4.3326,0 0,-14.783298 -3.0408,0 0,34.003058 8.4573,0 z m -5.4165,-16.72094 4.5393,0 c 2.6306,0 4.0744,0.30494 5.2098,1.07047 1.8562,1.22294 2.7838,3.26224 2.7838,6.11682 0,2.85459 -1.0304,5.04742 -2.9905,6.16977 -0.979,0.56012 -2.6296,0.86612 -4.9003,0.86612 l -4.6421,0 0,-14.22318"
           style="fill:#231f20;fill-opacity:1;fill-rule:nonzero;stroke:none"
           id="path32" /><path
           d="m 222.3461,35.24292 3.0419,0 0,-34.004117 -3.0419,0 0,34.004117 z"
           style="fill:#231f20;fill-opacity:1;fill-rule:nonzero;stroke:none"
           id="path34" /><path
           d="m 55.01295,22.23104 c -0.74333,0.65647 -1.8637,0.65647 -2.60703,0 l -4.46752,-3.94941 -4.46751,3.94941 c -0.74227,0.65647 -1.86477,0.65647 -2.60811,0 l -4.46644,-3.94941 -4.46752,3.94941 c -0.74334,0.65647 -1.86584,0.65647 -2.60703,0 l -4.46966,-3.94941 -4.46645,3.94941 c -0.74226,0.65647 -1.86477,0.65647 -2.6081,0 l -4.46538,-3.9473 -4.466443,3.9473 c -0.742265,0.65647 -1.864767,0.65647 -2.607033,0 L 0.4666198,17.12751 C -0.3377688,16.41704 -0.4063185,15.1941 0.313454,14.3968 c 0.718701,-0.79517 1.95581,-0.86188 2.76127,-0.15035 l 4.468588,3.95047 4.463228,-3.94941 0,-0.0011 c 0.0225,-0.02224 0.05142,-0.03494 0.07605,-0.05506 0.04606,-0.03706 0.09212,-0.07094 0.13924,-0.1027 0.0064,-0.0042 0.01179,-0.0074 0.01714,-0.01059 0.0482,-0.03177 0.09533,-0.05824 0.14567,-0.08471 0.0053,-0.0032 0.0096,-0.0053 0.01499,-0.0085 0.0482,-0.02647 0.0964,-0.04871 0.14567,-0.072 0.0043,-0.0011 0.0096,-0.0021 0.015,-0.0053 0.05569,-0.02224 0.11353,-0.0413 0.1703,-0.0593 0.0043,0 0.0096,-0.0021 0.01285,-0.0042 0.04927,-0.01589 0.09747,-0.02859 0.14781,-0.04024 0,0 0.0021,0 0.0043,0 0.06534,-0.01482 0.13067,-0.02329 0.19815,-0.02965 0.0021,0 0.0043,-0.001 0.0075,-0.001 0.04605,-0.0053 0.09425,-0.01059 0.14138,-0.01165 0.48842,-0.018 0.98433,0.14082 1.37421,0.48494 l 4.46645,3.94941 4.46644,-3.94941 c 0.74227,-0.65541 1.86477,-0.65541 2.60703,0 l 4.46752,3.95047 4.46645,-3.95047 c 0.7444,-0.65541 1.86584,-0.65541 2.60917,0 l 4.46752,3.95047 4.46859,-3.95047 c 0.74119,-0.65541 1.86262,-0.65541 2.60703,0 l 4.46752,3.95047 4.46644,-3.95047 c 0.37381,-0.33035 0.83974,-0.49235 1.30352,-0.49235 0.53661,0 1.07109,0.21917 1.45775,0.6427 0.71977,0.7973 0.65122,2.02024 -0.15209,2.73071 l -5.77318,5.10353"
           style="fill:#00adef;fill-opacity:1;fill-rule:nonzero;stroke:none"
           id="path36" /><path
           d="m 55.01295,9.716803 c -0.74333,0.657527 -1.8637,0.657527 -2.60703,0 L 47.9384,5.767391 43.47089,9.716803 c -0.74227,0.657527 -1.86477,0.657527 -2.60811,0 L 36.39634,5.767391 31.92882,9.716803 c -0.74334,0.657527 -1.86584,0.657527 -2.60703,0 L 24.85213,5.767391 20.38568,9.716803 c -0.74226,0.657527 -1.86477,0.657527 -2.6081,0 L 13.3122,5.76845 8.845757,9.716803 c -0.742265,0.657527 -1.864767,0.657527 -2.607033,0 L 0.4666198,4.614332 C -0.3377688,3.901744 -0.4063185,2.679862 0.313454,1.883627 1.033226,1.08845 2.270335,1.019627 3.074724,1.731156 L 7.543312,5.682685 12.00654,1.731156 c 0.0225,-0.020118 0.05142,-0.036 0.07498,-0.055059 0.04713,-0.037059 0.09426,-0.069882 0.14138,-0.102706 0.0075,-0.00423 0.01393,-0.00847 0.02143,-0.012706 0.04391,-0.029647 0.08997,-0.055058 0.1371,-0.08047 0.0043,-0.00318 0.01071,-0.00741 0.01499,-0.010588 0.05034,-0.024353 0.09961,-0.048706 0.15102,-0.069883 0.0032,-0.00212 0.0064,-0.00212 0.0086,-0.00423 0.0557,-0.022235 0.11461,-0.042353 0.17031,-0.060353 0.0053,-0.00318 0.0096,-0.00318 0.01392,-0.00423 0.05034,-0.014824 0.10068,-0.031765 0.15317,-0.042353 0.0032,0 0.0064,0 0.0096,0 0.06319,-0.014824 0.12639,-0.022236 0.18851,-0.029647 0.0021,0 0.0032,0 0.0043,0 0.05249,-0.00741 0.10497,-0.012706 0.15852,-0.013765 0.01928,-0.00106 0.03642,-0.00529 0.0557,-0.00529 0.0011,0 0.0011,0 0.0011,0 0.467,0 0.93399,0.164117 1.30566,0.491294 l 4.46645,3.949412 4.46644,-3.949412 c 0.74227,-0.656471 1.86477,-0.656471 2.60703,0 l 4.46752,3.951529 4.46645,-3.951529 c 0.7444,-0.656471 1.86584,-0.656471 2.60917,0 l 4.46752,3.951529 4.46859,-3.951529 c 0.74119,-0.656471 1.86262,-0.656471 2.60703,0 l 4.46752,3.951529 4.46644,-3.951529 c 0.37381,-0.330353 0.83974,-0.491294 1.30352,-0.491294 0.53661,0 1.07109,0.218117 1.45775,0.643765 0.71977,0.796235 0.65122,2.018117 -0.15209,2.730705 l -5.77318,5.102471"
           style="fill:#656263;fill-opacity:1;fill-rule:nonzero;stroke:none"
           id="path38" /><path
           d="m 3.074724,26.76174 4.468588,3.95047 4.463228,-3.94941 0,-0.0011 c 0.0225,-0.02117 0.05035,-0.03494 0.07498,-0.05505 0.04713,-0.03706 0.09426,-0.072 0.14353,-0.10483 0.0053,-0.0032 0.01071,-0.0063 0.01713,-0.01059 0.04713,-0.0307 0.09426,-0.05717 0.14246,-0.08364 0.0032,-0.0021 0.0075,-0.0053 0.01071,-0.0064 0.05034,-0.02647 0.10068,-0.05082 0.15317,-0.072 0.0021,-0.0011 0.0032,-0.0021 0.0053,-0.0021 0.05784,-0.02542 0.11782,-0.04553 0.1778,-0.06353 0.0021,-0.0011 0.0043,-0.0021 0.0064,-0.0032 0.05141,-0.01482 0.10282,-0.03071 0.15638,-0.04235 0.0021,0 0.0043,0 0.0064,0 0.06106,-0.01377 0.12318,-0.02118 0.1853,-0.02859 0.0032,0 0.0054,-0.0011 0.0086,-0.0021 0.05248,-0.0053 0.10604,-0.01165 0.15959,-0.01376 0.015,0 0.02999,-0.0032 0.04392,-0.0032 0.47128,-0.0042 0.94363,0.15988 1.31851,0.49129 l 4.46645,3.94942 4.46644,-3.94942 c 0.74227,-0.65647 1.86477,-0.65647 2.60703,0 l 4.46752,3.95047 4.46645,-3.95047 c 0.7444,-0.65647 1.86584,-0.65647 2.60917,0 l 4.46752,3.95047 4.46859,-3.95047 c 0.74119,-0.65647 1.86262,-0.65647 2.60703,0 l 4.46752,3.95047 4.46644,-3.95047 c 0.37381,-0.33035 0.83974,-0.49235 1.30352,-0.49235 0.53661,0 1.07109,0.21706 1.45775,0.64377 0.71977,0.79623 0.65122,2.01705 -0.15209,2.7307 l -5.77318,5.10353 c -0.74333,0.65541 -1.8637,0.65541 -2.60703,0 l -4.46752,-3.95047 -4.46751,3.95047 c -0.74227,0.65541 -1.86477,0.65541 -2.60811,0 l -4.46644,-3.95047 -4.46752,3.95047 c -0.74334,0.65541 -1.86584,0.65541 -2.60703,0 l -4.46966,-3.95047 -4.46645,3.95047 c -0.74226,0.65541 -1.86477,0.65541 -2.6081,0 L 13.3122,30.79798 8.845757,34.74739 c -0.742265,0.65541 -1.864767,0.65541 -2.607033,0 L 0.4666198,29.64386 c -0.8043886,-0.71259 -0.8729383,-1.93447 -0.1531658,-2.7307 0.718701,-0.79518 1.95581,-0.864 2.76127,-0.15142"
           style="fill:#ed127b;fill-opacity:1;fill-rule:nonzero;stroke:none"
           id="path40" /></g></g></g></svg>